%YAML 1.1
%TAG !u! tag:unity3d.com,2011:
--- !u!1045 &1
EditorBuildSettings:
  m_ObjectHideFlags: 0
  serializedVersion: 2
  m_Scenes:
  - enabled: 0
    path: 
    guid: 00000000000000000000000000000000
  - enabled: 1
    path: Assets/Scenes/Title.unity
    guid: 86e85db61aa2eff4d872526a3d1ca396
  - enabled: 1
    path: Assets/Scenes/StageSelect.unity
    guid: ae6db8cb07683b147a0b2bc669d9bc50
  - enabled: 0
    path: Assets/Scenes/CharaSelect.unity
    guid: 80044c630f852884eac236cfd1bdf2cd
  - enabled: 1
    path: Assets/Scenes/Stage1.unity
    guid: c813f490e7725334e91a4b36b41d1f4a
  - enabled: 1
    path: Assets/Scenes/GameOver.unity
    guid: 3658b3086b5c3694c8585175398be649
  - enabled: 1
    path: Assets/Scenes/Stage2.unity
    guid: f52222768d6eebc4bb37a66886d386bc
  - enabled: 1
    path: Assets/Scenes/Stage3.unity
    guid: 818df9165da28644daf1ccf945fd7b36
  - enabled: 1
    path: Assets/Scenes/Stage4.unity
    guid: f46b851bed1b83242bae8c326b590481
  - enabled: 1
    path: Assets/Scenes/Option.unity
    guid: 6f1840815b87e1a4f9ecbf7a6727e80f
  - enabled: 1
    path: Assets/Scenes/EndRoll.unity
    guid: f401259881b8c5d4daad1e693935f7cf
  m_configObjects: {}
