%YAML 1.1
%TAG !u! tag:unity3d.com,2011:
--- !u!1 &6548212167898928818
GameObject:
  m_ObjectHideFlags: 0
  m_CorrespondingSourceObject: {fileID: 0}
  m_PrefabInstance: {fileID: 0}
  m_PrefabAsset: {fileID: 0}
  serializedVersion: 6
  m_Component:
  - component: {fileID: 6548212167898928829}
  - component: {fileID: 6548212167898928828}
  - component: {fileID: 6548212167898928819}
  m_Layer: 0
  m_Name: EnemyHome
  m_TagString: Untagged
  m_Icon: {fileID: 0}
  m_NavMeshLayer: 0
  m_StaticEditorFlags: 0
  m_IsActive: 1
--- !u!4 &6548212167898928829
Transform:
  m_ObjectHideFlags: 0
  m_CorrespondingSourceObject: {fileID: 0}
  m_PrefabInstance: {fileID: 0}
  m_PrefabAsset: {fileID: 0}
  m_GameObject: {fileID: 6548212167898928818}
  m_LocalRotation: {x: -0, y: -0, z: -0, w: 1}
  m_LocalPosition: {x: -29.52, y: 5.46, z: 1307.12}
  m_LocalScale: {x: 1, y: 1, z: 1}
  m_Children:
  - {fileID: 6543744611105469229}
  m_Father: {fileID: 0}
  m_RootOrder: 0
  m_LocalEulerAnglesHint: {x: 0, y: 0, z: 0}
--- !u!65 &6548212167898928828
BoxCollider:
  m_ObjectHideFlags: 0
  m_CorrespondingSourceObject: {fileID: 0}
  m_PrefabInstance: {fileID: 0}
  m_PrefabAsset: {fileID: 0}
  m_GameObject: {fileID: 6548212167898928818}
  m_Material: {fileID: 0}
  m_IsTrigger: 1
  m_Enabled: 1
  serializedVersion: 2
  m_Size: {x: 3, y: 3, z: 3}
  m_Center: {x: 0, y: 1, z: 0}
--- !u!114 &6548212167898928819
MonoBehaviour:
  m_ObjectHideFlags: 0
  m_CorrespondingSourceObject: {fileID: 0}
  m_PrefabInstance: {fileID: 0}
  m_PrefabAsset: {fileID: 0}
  m_GameObject: {fileID: 6548212167898928818}
  m_Enabled: 1
  m_EditorHideFlags: 0
  m_Script: {fileID: 11500000, guid: bfbcbd45954532f4f9a2fb6c3c392bc6, type: 3}
  m_Name: 
  m_EditorClassIdentifier: 
  Princess: {fileID: 0}
  EnemyPrefabs:
  - {fileID: 4900433637756941818, guid: 3a7792924596a334a9040caa07a699fc, type: 3}
  - {fileID: 4740657369662846204, guid: 58163d8dbbae3444db97fd209d051c23, type: 3}
  Intarval: 2
  Type: 1
  DamageEffect: {fileID: 2771135144061331446, guid: fdadcd92fdb957041bacb0421626c0c6,
    type: 3}
  Player: {fileID: 0}
  Hp: 20
--- !u!1001 &6548212167268158107
PrefabInstance:
  m_ObjectHideFlags: 0
  serializedVersion: 2
  m_Modification:
    m_TransformParent: {fileID: 6548212167898928829}
    m_Modifications:
    - target: {fileID: 1697450319673640, guid: 429b354257073ae40ad51c100a60a6be, type: 3}
      propertyPath: m_Name
      value: terrain_standard
      objectReference: {fileID: 0}
    - target: {fileID: 4469824444545462, guid: 429b354257073ae40ad51c100a60a6be, type: 3}
      propertyPath: m_LocalPosition.x
      value: 0
      objectReference: {fileID: 0}
    - target: {fileID: 4469824444545462, guid: 429b354257073ae40ad51c100a60a6be, type: 3}
      propertyPath: m_LocalPosition.y
      value: 0
      objectReference: {fileID: 0}
    - target: {fileID: 4469824444545462, guid: 429b354257073ae40ad51c100a60a6be, type: 3}
      propertyPath: m_LocalPosition.z
      value: 0
      objectReference: {fileID: 0}
    - target: {fileID: 4469824444545462, guid: 429b354257073ae40ad51c100a60a6be, type: 3}
      propertyPath: m_LocalRotation.x
      value: -0.7071068
      objectReference: {fileID: 0}
    - target: {fileID: 4469824444545462, guid: 429b354257073ae40ad51c100a60a6be, type: 3}
      propertyPath: m_LocalRotation.y
      value: -0
      objectReference: {fileID: 0}
    - target: {fileID: 4469824444545462, guid: 429b354257073ae40ad51c100a60a6be, type: 3}
      propertyPath: m_LocalRotation.z
      value: -0
      objectReference: {fileID: 0}
    - target: {fileID: 4469824444545462, guid: 429b354257073ae40ad51c100a60a6be, type: 3}
      propertyPath: m_LocalRotation.w
      value: 0.7071068
      objectReference: {fileID: 0}
    - target: {fileID: 4469824444545462, guid: 429b354257073ae40ad51c100a60a6be, type: 3}
      propertyPath: m_RootOrder
      value: 0
      objectReference: {fileID: 0}
    - target: {fileID: 4469824444545462, guid: 429b354257073ae40ad51c100a60a6be, type: 3}
      propertyPath: m_LocalEulerAnglesHint.x
      value: 0
      objectReference: {fileID: 0}
    - target: {fileID: 4469824444545462, guid: 429b354257073ae40ad51c100a60a6be, type: 3}
      propertyPath: m_LocalEulerAnglesHint.y
      value: 0
      objectReference: {fileID: 0}
    - target: {fileID: 4469824444545462, guid: 429b354257073ae40ad51c100a60a6be, type: 3}
      propertyPath: m_LocalEulerAnglesHint.z
      value: 0
      objectReference: {fileID: 0}
    - target: {fileID: 4469824444545462, guid: 429b354257073ae40ad51c100a60a6be, type: 3}
      propertyPath: m_LocalScale.x
      value: 200
      objectReference: {fileID: 0}
    - target: {fileID: 4469824444545462, guid: 429b354257073ae40ad51c100a60a6be, type: 3}
      propertyPath: m_LocalScale.y
      value: 200.00002
      objectReference: {fileID: 0}
    - target: {fileID: 4469824444545462, guid: 429b354257073ae40ad51c100a60a6be, type: 3}
      propertyPath: m_LocalScale.z
      value: 1000
      objectReference: {fileID: 0}
    m_RemovedComponents: []
  m_SourcePrefab: {fileID: 100100000, guid: 429b354257073ae40ad51c100a60a6be, type: 3}
--- !u!4 &6543744611105469229 stripped
Transform:
  m_CorrespondingSourceObject: {fileID: 4469824444545462, guid: 429b354257073ae40ad51c100a60a6be,
    type: 3}
  m_PrefabInstance: {fileID: 6548212167268158107}
  m_PrefabAsset: {fileID: 0}
